Chapter6 Web上のデータ取得とWebブラウザの操作
…
　処理の塊ごとに確認していきます。

・処理の確認(クリックで展開)

　利用する品詞を抽出して、不要な単語を削除します。

# 不要な単語を削除
tmp1_df <- mecab_df %>% 
  dplyr::filter(POS1 %in% pos1_vec) %>% # 指定した品詞大分類を抽出
  dplyr::filter(POS2 %in% pos2_vec) %>% # 指定した品詞小分類を抽出
  dplyr::filter(!stringr::str_detect(TERM, pattern = paste0(stopword_symbol_vec, collapse = "|"))) %>% # 指定した記号を削除
  dplyr::filter(!stringr::str_detect(TERM, pattern = paste0(stopword_term_vec, collapse = "|")))
tmp1_df

## # A tibble: 1,373 x 4
##    TERM   POS1  POS2     `2022_03.txt`
##    <chr>  <chr> <chr>            <int>
##  1 "\""   名詞  サ変接続           348
##  2 "\"\"" 名詞  サ変接続             2
##  3 "%>%"  名詞  サ変接続            62
##  4 "&"    名詞  サ変接続            12
##  5 "&="   名詞  サ変接続            12
##  6 "'"    名詞  サ変接続            23
##  7 "*"    名詞  サ変接続            33
##  8 "+"    名詞  サ変接続           413
##  9 "+="   名詞  サ変接続             1
## 10 "-"    名詞  サ変接続           270
## # ... with 1,363 more rows
…
!stringr::str_detect("d", pattern = "a|b|c")

## [1] TRUE

　単語の頻度を再集計します。

# 頻度を再集計
tmp2_df <- tmp1_df %>% # 指定した単語を削除
  dplyr::select(term = TERM, frequency = file_name) %>% # 単語と頻度の列を取り出し
  dplyr::group_by(term) %>% # 単語でグループ化
  dplyr::summarise(frequency = sum(frequency), .groups = "drop") # 同一単語の頻度を合計
tmp2_df

## # A tibble: 1,170 x 2
##    term   frequency
##    <chr>      <int>
##  1 "'"           23
##  2 "-"          270
##  3 "-="           3
##  4 "\""         348
##  5 "\"\""         2
##  6 "%>%"         62
##  7 "&"           12
##  8 "&="          12
##  9 "*"           33
## 10 "/"           91
## # ... with 1,160 more rows
　select()で、単語列と頻度列を取り出して、扱いやすいように列名を変更します。

　品詞の情報を落とすので、品詞の異なる同一単語が重複して存在することになります。

　そこで、group_by()で単語をグループ化して、summarise()とsum()で頻度を合算します。

　出現頻度の上位単語を抽出します。

# 頻度上位単語を抽出
tmp3_df <- tmp2_df %>% 
  dplyr::arrange(dplyr::desc(frequency)) %>% # 降順に並び替え
  head(n = term_size) # 頻出語を抽出
tmp3_df

## # A tibble: 100 x 2
##    term   frequency
##    <chr>      <int>
##  1 "="         1575
##  2 "x"          696
##  3 "+"          413
##  4 "\""         348
##  5 "関数"       328
##  6 "y"          315
##  7 "-"          270
##  8 "<"          253
##  9 "作成"       222
## 10 ">"          218
## # ... with 90 more rows
…
・処理の確認(クリックで展開)

　利用する品詞を抽出して、不要な単語を削除します。

# 頻出語を抽出
tmp1_df <- mecab_df %>% 
  dplyr::filter(POS1 %in% pos1_vec) %>% # 指定した品詞大分類を抽出
  dplyr::filter(POS2 %in% pos2_vec) %>% # 指定した品詞小分類を抽出
  dplyr::filter(!stringr::str_detect(TERM, pattern = paste0(stopword_symbol_vec, collapse = "|"))) %>% # 不要な記号を削除
  dplyr::filter(!stringr::str_detect(TERM, pattern = paste0(stopword_term_vec, collapse = "|"))) %>% # 不要な単語を削除
  dplyr::select(term = TERM, !c("POS1", "POS2")) # 単語と頻度の列を取り出し
tmp1_df

## # A tibble: 8,370 x 39
##    term    `2018_12.txt` `2019_01.txt` `2019_02.txt` `2019_03.txt` `2019_04.txt`
##    <chr>           <int>         <int>         <int>         <int>         <int>
##  1 "\""              264          3567             6           263            78
##  2 "\"\""              5             0             0             0             0
##  3 "\"%"               0             0             0            10             2
##  4 "\"&\""             0             0             0             0             0
##  5 "\"'\""             0             1             0             0             0
##  6 "\"*\""            28             0             0             0             0
##  7 "\"-"               0             0             0             0             0
##  8 "\":\""             0             0             0             0             0
##  9 "\"<"               0             0             0             0             0
## 10 "\"===~             0             0             0             0             0
## # ... with 8,360 more rows, and 33 more variables: `2019_05.txt` <int>,
## #   `2019_06.txt` <int>, `2019_07.txt` <int>, `2019_08.txt` <int>,
## #   `2019_09.txt` <int>, `2019_12.txt` <int>, `2020_01.txt` <int>,
## #   `2020_02.txt` <int>, `2020_04.txt` <int>, `2020_05.txt` <int>,
## #   `2020_06.txt` <int>, `2020_07.txt` <int>, `2020_08.txt` <int>,
## #   `2020_09.txt` <int>, `2020_10.txt` <int>, `2020_11.txt` <int>,
## #   `2020_12.txt` <int>, `2021_01.txt` <int>, `2021_02.txt` <int>, ...
…
　全てのテキストの頻度列をまとめます。

tmp2_df <- tmp1_df %>% 
  tidyr::pivot_longer(cols = !term, names_to = "date", values_to = "frequency") %>% # 頻度列をまとめる
  dplyr::mutate(
    date = date %>% 
      stringr::str_remove(pattern = ".txt") %>% 
      stringr::str_replace(pattern = "_", replacement = "-") %>% 
      stringr::str_c("-01") %>% 
      lubridate::as_date()
  ) # 日付情報に変換
tmp2_df

## # A tibble: 318,060 x 3
##    term  date       frequency
##    <chr> <date>         <int>
##  1 "\""  2018-12-01       264
##  2 "\""  2019-01-01      3567
##  3 "\""  2019-02-01         6
##  4 "\""  2019-03-01       263
##  5 "\""  2019-04-01        78
##  6 "\""  2019-05-01        53
##  7 "\""  2019-06-01        94
##  8 "\""  2019-07-01        58
##  9 "\""  2019-08-01        49
## 10 "\""  2019-09-01       142
## # ... with 318,050 more rows

　pivot_longer()で、各テキストの頻度列を、ファイル名列(date)と頻度列(frequency)にまとめます。

　ファイル名列を日付列に変換します。ファイル名はyyyy_mm.txtなので、削除str_remove()・置換str_replace()・結合str_c()を使ってyyyy-mm-01にして、さらにas_date()でDate型に変換します。

　頻度を再集計します。

tmp3_df <- tmp2_df %>% 
  dplyr::group_by(term, date) %>% # 単語と月でグループ化
  dplyr::summarise(frequency = sum(frequency), .groups = "drop") %>% # 頻度を合計
  dplyr::arrange(date, frequency) # 昇順に並び替え
tmp3_df

## # A tibble: 263,454 x 3
##    term  date       frequency
##    <chr> <date>         <int>
##  1 ''    2018-12-01         0
##  2 ''='  2018-12-01         0
##  3 '-    2018-12-01         0
##  4 '-':  2018-12-01         0
##  5 '！'  2018-12-01         0
##  6 '&    2018-12-01         0
##  7 '*'   2018-12-01         0
##  8 '**'  2018-12-01         0
##  9 '***' 2018-12-01         0
## 10 '、   2018-12-01         0
## # ... with 263,444 more rows
　品詞の情報を落としたので、品詞の異なる同一単語が重複して存在することになります。

　そこで、group_by()で単語と月(テキスト)でグループ化して、summarise()とsum()で頻度を合算します。

　頻度が多い順にランキングを付けます。

tmp4_df <- tmp3_df %>% # 昇順に並び替え
  dplyr::group_by(date) %>% # 月でグループ化
  dplyr::mutate(ranking = dplyr::row_number(-frequency)) %>% # 月ごとにランク付け
  dplyr::ungroup() %>% # グループ化を解除
  dplyr::filter(ranking <= max_rank) %>% # 頻度上位単語を抽出
  dplyr::arrange(date, ranking) # 昇順に並び替え
tmp4_df

## # A tibble: 3,800 x 4
##    term       date       frequency ranking
##    <chr>      <date>         <int>   <int>
##  1 "\""       2018-12-01       264       1
##  2 "<-"       2018-12-01       161       2
##  3 "="        2018-12-01       138       3
##  4 "単語"     2018-12-01        79       4
##  5 "tmp"      2018-12-01        64       5
##  6 "%>%"      2018-12-01        60       6
##  7 "名詞"     2018-12-01        53       7
##  8 "file"     2018-12-01        48       8
##  9 "data"     2018-12-01        47       9
## 10 "テキスト" 2018-12-01        45      10
## # ... with 3,790 more rows
…
